SeriesPost - Lahman package example
…
library(dplyr)

## Warning: package 'dplyr' was built under R version 3.4.1

ws_winner_table <- SeriesPost %>%
  mutate(teamIDwinner = as.character(teamIDwinner)) %>%
  filter(yearID > "1902", round == "WS") %>%
  group_by(teamIDwinner) %>%
  summarise(wincount = n()) %>%
  arrange(desc(wincount))

ws_winner_table

## # A tibble: 28 x 2
##    teamIDwinner wincount
##           <chr>    <int>
##  1          NYA       27
##  2          SLN       11
##  3          BOS        8
##  4          CIN        5
##  5          LAN        5
##  6          NY1        5
##  7          PHA        5
##  8          PIT        5
##  9          DET        4
## 10          OAK        4
## # ... with 18 more rows
…
